\relax 
\citation{ai-cancer}
\citation{ai-speech}
\citation{ai-object}
\citation{ai-speech-pr}
\citation{google-util}
\citation{permdnn}
\citation{permcnn}
\@writefile{toc}{\contentsline {section}{\numberline {I}Einführung}{1}\protected@file@percent }
\@writefile{toc}{\contentsline {section}{\numberline {II}Einführung in künstliche neuronale Netze}{1}\protected@file@percent }
\newlabel{sec:knn_intro}{{II}{1}}
\citation{activation-function}
\citation{gradient-descent}
\citation{backprop}
\citation{hp-tuning}
\citation{neural-zoo}
\@writefile{toc}{\contentsline {subsection}{\numberline {\mbox  {II-A}}Aufbau von künstlichen neuronalen Netzen}{2}\protected@file@percent }
\@writefile{lof}{\contentsline {figure}{\numberline {1}{\ignorespaces KNN mit Hidden Layer bestehend aus der Eingabeschicht mit der Eingabe $\mathnormal  {x_0, x_1, x_2}$ und der Ausgabeschicht mit der Ausgabe $\mathnormal  {y_0, y_1, y_2}$\relax }}{2}\protected@file@percent }
\providecommand*\caption@xref[2]{\@setref\relax\@undefined{#1}}
\newlabel{fig:knn_hidden}{{1}{2}}
\@writefile{toc}{\contentsline {subsection}{\numberline {\mbox  {II-B}}Mathematische Betrachtung eines KNN}{2}\protected@file@percent }
\newlabel{eq:neuron_output}{{1}{2}}
\@writefile{toc}{\contentsline {subsection}{\numberline {\mbox  {II-C}}Training eines KNN}{2}\protected@file@percent }
\newlabel{eq:gradient_descent}{{2}{2}}
\newlabel{eq:backprop}{{3}{2}}
\citation{neural-pruning}
\citation{circnn}
\citation{permdnn}
\citation{circnn}
\citation{circnn}
\citation{circnn}
\citation{permdnn}
\@writefile{toc}{\contentsline {subsection}{\numberline {\mbox  {II-D}}Weitere Arten von KNN}{3}\protected@file@percent }
\@writefile{toc}{\contentsline {subsection}{\numberline {\mbox  {II-E}}Matrixschreibweise}{3}\protected@file@percent }
\newlabel{eq:matrix}{{4}{3}}
\@writefile{toc}{\contentsline {section}{\numberline {III}Theoretische Optimierung von KNN}{3}\protected@file@percent }
\newlabel{sec:th_opt_knn}{{III}{3}}
\@writefile{toc}{\contentsline {subsection}{\numberline {\mbox  {III-A}}Erster Ansatz: CirCNN}{3}\protected@file@percent }
\@writefile{toc}{\contentsline {subsection}{\numberline {\mbox  {III-B}}Zweiter Ansatz: PermDNN}{3}\protected@file@percent }
\citation{circnn-short-proof}
\citation{fig-2-permdnn}
\citation{fig-2-permdnn}
\newlabel{eq:row-computing}{{8}{4}}
\@writefile{toc}{\contentsline {subsection}{\numberline {\mbox  {III-C}}Universal Approximation Theorem}{4}\protected@file@percent }
\@writefile{toc}{\contentsline {section}{\numberline {IV}Hardware-Beschleunigung}{4}\protected@file@percent }
\newlabel{sec:hardware}{{IV}{4}}
\@writefile{toc}{\contentsline {subsection}{\numberline {\mbox  {IV-A}}PermDNN-Architektur}{4}\protected@file@percent }
\@writefile{toc}{\contentsline {subsubsection}{\numberline {\mbox  {IV-A}1}Allgemeiner Aufbau der Architektur}{4}\protected@file@percent }
\@writefile{lof}{\contentsline {figure}{\numberline {2}{\ignorespaces Aufbau der PermDNN Architektur \cite  {fig-2-permdnn} bestehend aus dem Aktivierungs-Speicher (Act SRAM), ein Feld aus \textit  {processing elements (PE)}, ein Steuerelement und dem Routingnetzwerk, welches die Ausgabe der jeweiligen Speicherzelle im Aktivierungsspeicher zuordnet.\relax }}{4}\protected@file@percent }
\newlabel{fig:permdnn_architecture}{{2}{4}}
\citation{google-util}
\citation{fig-3-tpu-architecture}
\citation{fig-3-tpu-architecture}
\@writefile{toc}{\contentsline {subsubsection}{\numberline {\mbox  {IV-A}2}Vergleich PermDNN mit CirCNN}{5}\protected@file@percent }
\@writefile{toc}{\contentsline {subsection}{\numberline {\mbox  {IV-B}}Tensor Processing Units (TPU)}{5}\protected@file@percent }
\@writefile{toc}{\contentsline {subsubsection}{\numberline {\mbox  {IV-B}1}Allgemeiner Aufbau der TPU}{5}\protected@file@percent }
\@writefile{lof}{\contentsline {figure}{\numberline {3}{\ignorespaces Aufbau der TPU-Architektur \cite  {fig-3-tpu-architecture}. Hauptbestandteil ist die Matrix Multiplication Unit (MAC), die Ausgabe der MAC wird in Akkumulatoren gespeichert, welche wiederum mit der gewünschten Aktivierungsfuntkion verbunden sind.\relax }}{5}\protected@file@percent }
\newlabel{fig:tpu_architecture}{{3}{5}}
\@writefile{toc}{\contentsline {subsubsection}{\numberline {\mbox  {IV-B}2}Die Matrix-Multiplikationseinheit}{5}\protected@file@percent }
\citation{fig-4-sys-array}
\citation{fig-4-sys-array}
\citation{tpu-systemarchitecture}
\citation{tpu-systemarchitecture}
\citation{tpu-systemarchitecture}
\citation{tpu-google}
\bibcite{ai-cancer}{1}
\@writefile{lof}{\contentsline {figure}{\numberline {4}{\ignorespaces Systolischer Array bestehend aus drei MACs berechnet Matrixmultiplikation aus der Gewichtsmatrix $\mathnormal  {W}$ und der Eingabe $\mathnormal  {X}$ \cite  {fig-4-sys-array}\relax }}{6}\protected@file@percent }
\newlabel{fig:systolic_array_pe}{{4}{6}}
\@writefile{toc}{\contentsline {subsubsection}{\numberline {\mbox  {IV-B}3}Evolution der TPU}{6}\protected@file@percent }
\@writefile{lof}{\contentsline {figure}{\numberline {5}{\ignorespaces TPUv2 und TPUv3 mit jeweils zwei Rechenkernen und einer $\mathnormal  {128\times 128}$ großen MXU Einheit, welche jeweils 8GB respektive 16GB \textit  {High Bandwidth Memory} ansprechen können \cite  {tpu-systemarchitecture}\relax }}{6}\protected@file@percent }
\newlabel{fig:tpu_evo}{{5}{6}}
\@writefile{lot}{\contentsline {table}{\numberline {I}{\ignorespaces Vergleich der einzelnen TPU-Versionen. TFLOP bezeichnet dabei die \textit  {Floating-Point Operation per Second}\relax }}{6}\protected@file@percent }
\newlabel{table:tpu_comparison}{{I}{6}}
\@writefile{toc}{\contentsline {section}{\numberline {V}Zusammenfassung}{6}\protected@file@percent }
\bibcite{ai-speech}{2}
\bibcite{ai-object}{3}
\bibcite{ai-speech-pr}{4}
\bibcite{google-util}{5}
\bibcite{permdnn}{6}
\bibcite{permcnn}{7}
\bibcite{activation-function}{8}
\bibcite{gradient-descent}{9}
\bibcite{backprop}{10}
\bibcite{hp-tuning}{11}
\bibcite{neural-zoo}{12}
\bibcite{neural-pruning}{13}
\bibcite{circnn}{14}
\bibcite{circnn-short-proof}{15}
\bibcite{tpu-systemarchitecture}{16}
\bibcite{tpu-google}{17}
\bibcite{fig-2-permdnn}{18}
\bibcite{fig-3-tpu-architecture}{19}
\bibcite{fig-4-sys-array}{20}
\@writefile{toc}{\contentsline {section}{References}{7}\protected@file@percent }
